%YAML 1.1
%TAG !u! tag:unity3d.com,2011:
--- !u!1 &7548619503815828333
GameObject:
  m_ObjectHideFlags: 0
  m_CorrespondingSourceObject: {fileID: 0}
  m_PrefabInstance: {fileID: 0}
  m_PrefabAsset: {fileID: 0}
  serializedVersion: 6
  m_Component:
  - component: {fileID: 8319834457587850247}
  - component: {fileID: 2451633551798771935}
  m_Layer: 0
  m_Name: AudioManager
  m_TagString: Untagged
  m_Icon: {fileID: 0}
  m_NavMeshLayer: 0
  m_StaticEditorFlags: 0
  m_IsActive: 1
--- !u!4 &8319834457587850247
Transform:
  m_ObjectHideFlags: 0
  m_CorrespondingSourceObject: {fileID: 0}
  m_PrefabInstance: {fileID: 0}
  m_PrefabAsset: {fileID: 0}
  m_GameObject: {fileID: 7548619503815828333}
  m_LocalRotation: {x: 0, y: 0, z: 0, w: 1}
  m_LocalPosition: {x: -2.9571917, y: 5.831514, z: 17.252638}
  m_LocalScale: {x: 1, y: 1, z: 1}
  m_Children: []
  m_Father: {fileID: 0}
  m_RootOrder: 0
  m_LocalEulerAnglesHint: {x: 0, y: 0, z: 0}
--- !u!114 &2451633551798771935
MonoBehaviour:
  m_ObjectHideFlags: 0
  m_CorrespondingSourceObject: {fileID: 0}
  m_PrefabInstance: {fileID: 0}
  m_PrefabAsset: {fileID: 0}
  m_GameObject: {fileID: 7548619503815828333}
  m_Enabled: 1
  m_EditorHideFlags: 0
  m_Script: {fileID: 11500000, guid: 0abcc410d781ecc4fa3dba0a5533dfe1, type: 3}
  m_Name: 
  m_EditorClassIdentifier: 
  sounds:
  - name: BloodSplatterSFX
    clip: {fileID: 8300000, guid: 87289095fba2ee441990b88b5b4372ca, type: 3}
    volume: 1
    pitch: 1
    loop: 0
    source: {fileID: 0}
    mixerGroup: {fileID: 24300002, guid: cf790336c3015654ab3e55cde0774b33, type: 2}
  - name: RumbleSFX
    clip: {fileID: 8300000, guid: 550387e55f630834aa7367ea9639c346, type: 3}
    volume: 0.25
    pitch: 1
    loop: 1
    source: {fileID: 0}
    mixerGroup: {fileID: 24300002, guid: cf790336c3015654ab3e55cde0774b33, type: 2}
  - name: SighSFX
    clip: {fileID: 8300000, guid: 6e5c2de358b931c4daff0e8a51680722, type: 3}
    volume: 1
    pitch: 1
    loop: 0
    source: {fileID: 0}
    mixerGroup: {fileID: 24300002, guid: cf790336c3015654ab3e55cde0774b33, type: 2}
  - name: ThunderSFX
    clip: {fileID: 8300000, guid: a6bf8f5959a161c45b498a4b51b333e5, type: 3}
    volume: 0.85
    pitch: 1
    loop: 0
    source: {fileID: 0}
    mixerGroup: {fileID: 24300002, guid: cf790336c3015654ab3e55cde0774b33, type: 2}
  - name: TypingSFX
    clip: {fileID: 8300000, guid: 34078445cb96ff947ba137ae6259d008, type: 3}
    volume: 0.86
    pitch: 1
    loop: 1
    source: {fileID: 0}
    mixerGroup: {fileID: 24300002, guid: cf790336c3015654ab3e55cde0774b33, type: 2}
  - name: MenuInteractSFX
    clip: {fileID: 8300000, guid: c735e57dfd61a1d45951d35978507007, type: 3}
    volume: 0.86
    pitch: 1
    loop: 0
    source: {fileID: 0}
    mixerGroup: {fileID: 24300002, guid: cf790336c3015654ab3e55cde0774b33, type: 2}
  - name: MenuSelectSFX
    clip: {fileID: 8300000, guid: 6d17bf85259f0bd4ba7869c61ea1bb01, type: 3}
    volume: 1
    pitch: 1
    loop: 0
    source: {fileID: 0}
    mixerGroup: {fileID: 24300002, guid: cf790336c3015654ab3e55cde0774b33, type: 2}
  - name: DeletingtSFX
    clip: {fileID: 8300000, guid: db3b0173335bf5b43bba50783e37b6d5, type: 3}
    volume: 1
    pitch: 1
    loop: 1
    source: {fileID: 0}
    mixerGroup: {fileID: 24300002, guid: cf790336c3015654ab3e55cde0774b33, type: 2}
  - name: Kicking it
    clip: {fileID: 8300000, guid: 85e87410ceecd7a4c9e081158b778136, type: 3}
    volume: 0.8
    pitch: 1
    loop: 0
    source: {fileID: 0}
    mixerGroup: {fileID: 24300002, guid: 9a07234d5dd85df48a28ef5526225bd0, type: 2}
  - name: Sunny Days
    clip: {fileID: 8300000, guid: 8dff9227a997e344ca5626e5d794e18c, type: 3}
    volume: 0.8
    pitch: 1
    loop: 0
    source: {fileID: 0}
    mixerGroup: {fileID: 24300002, guid: 9a07234d5dd85df48a28ef5526225bd0, type: 2}
  - name: WitchLaugh
    clip: {fileID: 8300000, guid: 09a4f5efb8e081d4589323bcbeae45eb, type: 3}
    volume: 0.8
    pitch: 1
    loop: 0
    source: {fileID: 0}
    mixerGroup: {fileID: 24300002, guid: cf790336c3015654ab3e55cde0774b33, type: 2}
  soundGroups:
  - name: DirstStepSFX
    clips:
    - {fileID: 8300000, guid: fca02b6df56b7cc49994b97676956475, type: 3}
    - {fileID: 8300000, guid: 06869b0f0757bf54c9387d546cce47da, type: 3}
    - {fileID: 8300000, guid: 24b0ed2f47875e6478ff6e01706735b0, type: 3}
    - {fileID: 8300000, guid: 09310ee2007cb514fb446bc342a8b7a2, type: 3}
    - {fileID: 8300000, guid: c7c4c43ac2962304f9798d893e07ec64, type: 3}
    - {fileID: 8300000, guid: a768f197318559041a3abea0d7e5e1ad, type: 3}
    volume: 0.25
    pitch: 1
    loop: 0
    source: {fileID: 0}
    mixerGroup: {fileID: 24300002, guid: cf790336c3015654ab3e55cde0774b33, type: 2}
  - name: BeggarSFX
    clips:
    - {fileID: 8300000, guid: 6a8838c7d9c19c94e83f01988ca8d56d, type: 3}
    - {fileID: 8300000, guid: eda8c11dc026ecf4ba37a626b05ed427, type: 3}
    - {fileID: 8300000, guid: 264697523ee257a4bb0e7c71d4233056, type: 3}
    - {fileID: 8300000, guid: af8742c36d5fdbe4eb572a2c80149fec, type: 3}
    - {fileID: 8300000, guid: bad4f07f5f782f846b146370d6206fb2, type: 3}
    - {fileID: 8300000, guid: 422fa1a7ed74bdd4aad195b6ed17ca59, type: 3}
    volume: 1
    pitch: 1
    loop: 0
    source: {fileID: 0}
    mixerGroup: {fileID: 24300002, guid: cf790336c3015654ab3e55cde0774b33, type: 2}
  _musicManagerPrefab: {fileID: 7689465922772050452, guid: 7ecf8426171246e41bd6534acd38ec23, type: 3}
  pitchChange: 0.25
